[
    {
        "pk": 5, 
        "model": "recipe_groups.course", 
        "fields": {
            "slug": "appetizer", 
            "title": "appetizer"
        }
    }, 
    {
        "pk": 1, 
        "model": "recipe_groups.course", 
        "fields": {
            "slug": "breakfast", 
            "title": "breakfast"
        }
    }, 
    {
        "pk": 2, 
        "model": "recipe_groups.course", 
        "fields": {
            "slug": "brunch", 
            "title": "brunch"
        }
    }, 
    {
        "pk": 6, 
        "model": "recipe_groups.course", 
        "fields": {
            "slug": "dessert", 
            "title": "dessert"
        }
    }, 
    {
        "pk": 4, 
        "model": "recipe_groups.course", 
        "fields": {
            "slug": "dinner", 
            "title": "dinner"
        }
    }, 
    {
        "pk": 3, 
        "model": "recipe_groups.course", 
        "fields": {
            "slug": "lunch", 
            "title": "lunch"
        }
    }
]